…
## Shots and Goals

``` r
statsbombdata %>%
  group_by(team.name) %>%
  summarise(shots=sum(type.name=="Shot",na.rm=TRUE),
            goals=sum(shot.outcome.name=="Goal",na.rm=TRUE))
```

    ## # A tibble: 24 x 3
    ##    team.name         shots goals
    ##    <chr>             <int> <int>
    ##  1 Argentina Women's    18     2
    ##  2 Australia Women's    57     9
    ##  3 Brazil Women's       51     7
    ##  4 Cameroon Women's     43     3
    ##  5 Canada Women's       61     4
    ##  6 Chile Women's        34     1
    ##  7 China PR Women's     40     1
    ##  8 England Women's      89    13
    ##  9 France Women's       91    10
    ## 10 Germany Women's      77    10
    ## # ... with 14 more rows
…
## Player shots per 90

``` r
statsbombdata %>%
  group_by(player.name,player.id) %>%
  summarise(shots=sum(type.name=="Shot",na.rm=TRUE)) %>%
  left_join(statsbombdata %>%
              get.minutesplayed() %>%
              group_by(player.id) %>%
              summarise(minutes=sum(MinutesPlayed))) %>%
  mutate(shotsper90=(shots/minutes)*90) %>%
  arrange(-shots)
```

    ## # A tibble: 442 x 5
    ## # Groups:   player.name [442]
    ##    player.name              player.id shots minutes shotsper90
    ##    <chr>                        <int> <int>   <dbl>      <dbl>
    ##  1 Vivianne Miedema             15623    23    708.       2.92
    ##  2 Alex Morgan                   5085    20    526.       3.43
    ##  3 Samantha Kerr                 4961    20    418.       4.30
    ##  4 Sara Däbritz                 10263    20    487.       3.69
    ##  5 Ellen White                  10180    18    558.       2.90
    ##  6 Carli Lloyd                   5097    17    239.       6.41
    ##  7 Eugénie Le Sommer            10121    17    438.       3.49
    ##  8 Janine Beckie                 4992    17    363.       4.21
    ##  9 Jennifer Hermoso Fuentes     10151    17    391.       3.92
    ## 10 Amandine Henry               10123    16    517.       2.79
    ## # ... with 432 more rows
…
