…
### Tidy data

``` r
player_data <- data.frame(Name = player_names, No = player_numbers, Position = player_position, Height = player_height, Foot = player_foot)

player_data %<>%
  as_tibble %>%
  mutate(No = as.integer(No))
  
player_data
```

    ## # A tibble: 30 x 5
    ##    Name                  No Position    Height Foot 
    ##    <fct>              <int> <fct>       <fct>  <fct>
    ##  1 Angus Gunn            15 Goalkeeper  1,96 m right
    ##  2 Fraser Forster        22 Goalkeeper  2,01 m right
    ##  3 Alex McCarthy          2 Goalkeeper  1,93 m right
    ##  4 Jannik Vestergaard    19 Centre-Back 1,99 m both 
    ##  5 Jan Bednarek          17 Centre-Back 1,89 m right
    ##  6 Wesley Hoedt          24 Centre-Back 1,88 m left 
    ##  7 Jack Stephens         23 Centre-Back 1,85 m right
    ##  8 Maya Yoshida          16 Centre-Back 1,89 m right
    ##  9 Ryan Bertrand         12 Left-Back   1,79 m left 
    ## 10 Sam McQueen            5 Left-Back   1,81 m left 
    ## # ... with 20 more rows
…
